Numbers – CSCI 2025
…
Counts

count()

dplyr::count() is a quick way to count the number of rows for each unique value of a variable.

It’s a shortcut for group_by() and summarize(n = n()).

Example

# Count flights per destination
flights |> count(dest, sort = TRUE)

# A tibble: 105 × 2
   dest      n
   <chr> <int>
 1 ORD   17283
 2 ATL   17215
 3 LAX   16174
 4 BOS   15508
 5 MCO   14082
 6 CLT   14064
 7 SFO   13331
 8 FLL   12055
 9 MIA   11728
10 DCA    9705
# ℹ 95 more rows
…
%% (remainder) and %/% (integer division) are useful for modular arithmetic.

Example

Code
# Break down departure time into hour and minute
flights |> 
  select(dep_time) |>
  mutate(
    hour = dep_time %/% 100,
    minute = dep_time %% 100,
    total_minutes = hour * 60 + minute
  )

# A tibble: 336,776 × 4
   dep_time  hour minute total_minutes
      <int> <dbl>  <dbl>         <dbl>
 1      517     5     17           317
 2      533     5     33           333
 3      542     5     42           342
 4      544     5     44           344
 5      554     5     54           354
 6      554     5     54           354
 7      555     5     55           355
 8      557     5     57           357
 9      557     5     57           357
10      558     5     58           358
# ℹ 336,766 more rows
…
