Logical Vectors – CSCI 2025
…
x <- c(1, 2, 3, 5, 8, 13)
x > 4

[1] FALSE FALSE FALSE  TRUE  TRUE  TRUE

Comparisons with filter()

Most often, you’ll use comparisons inside filter() to select rows.

Code
# Flights that departed in January
filter(flights, month == 1)

# A tibble: 27,004 × 19
    year month   day dep_time sched_dep_time dep_delay arr_time sched_arr_time
   <int> <int> <int>    <int>          <int>     <dbl>    <int>          <int>
 1  2013     1     1      517            515         2      830            819
 2  2013     1     1      533            529         4      850            830
 3  2013     1     1      542            540         2      923            850
 4  2013     1     1      544            545        -1     1004           1022
 5  2013     1     1      554            600        -6      812            837
 6  2013     1     1      554            558        -4      740            728
 7  2013     1     1      555            600        -5      913            854
 8  2013     1     1      557            600        -3      709            723
 9  2013     1     1      557            600        -3      838            846
10  2013     1     1      558            600        -2      753            745
# ℹ 26,994 more rows
# ℹ 11 more variables: arr_delay <dbl>, carrier <chr>, flight <int>,
#   tailnum <chr>, origin <chr>, dest <chr>, air_time <dbl>, distance <dbl>,
#   hour <dbl>, minute <dbl>, time_hour <dttm>
…
& (and)

| (or)

! (not)

Example 1

Code
# Flights in January or February
flights |>
  filter(month == 1 | month == 2)

# A tibble: 51,955 × 19
    year month   day dep_time sched_dep_time dep_delay arr_time sched_arr_time
   <int> <int> <int>    <int>          <int>     <dbl>    <int>          <int>
 1  2013     1     1      517            515         2      830            819
 2  2013     1     1      533            529         4      850            830
 3  2013     1     1      542            540         2      923            850
 4  2013     1     1      544            545        -1     1004           1022
 5  2013     1     1      554            600        -6      812            837
 6  2013     1     1      554            558        -4      740            728
 7  2013     1     1      555            600        -5      913            854
 8  2013     1     1      557            600        -3      709            723
 9  2013     1     1      557            600        -3      838            846
10  2013     1     1      558            600        -2      753            745
# ℹ 51,945 more rows
# ℹ 11 more variables: arr_delay <dbl>, carrier <chr>, flight <int>,
#   tailnum <chr>, origin <chr>, dest <chr>, air_time <dbl>, distance <dbl>,
#   hour <dbl>, minute <dbl>, time_hour <dttm>

Example 2

Code
# Flights not delayed (on departure or arrival)
flights |> 
filter(!(dep_delay > 0 | arr_delay > 0))

# A tibble: 158,900 × 19
    year month   day dep_time sched_dep_time dep_delay arr_time sched_arr_time
   <int> <int> <int>    <int>          <int>     <dbl>    <int>          <int>
 1  2013     1     1      544            545        -1     1004           1022
 2  2013     1     1      554            600        -6      812            837
 3  2013     1     1      557            600        -3      709            723
 4  2013     1     1      557            600        -3      838            846
 5  2013     1     1      558            600        -2      849            851
 6  2013     1     1      558            600        -2      853            856
 7  2013     1     1      558            600        -2      923            937
 8  2013     1     1      559            559         0      702            706
 9  2013     1     1      559            600        -1      854            902
10  2013     1     1      600            600         0      851            858
# ℹ 158,890 more rows
# ℹ 11 more variables: arr_delay <dbl>, carrier <chr>, flight <int>,
#   tailnum <chr>, origin <chr>, dest <chr>, air_time <dbl>, distance <dbl>,
#   hour <dbl>, minute <dbl>, time_hour <dttm>

%in%

A useful shortcut for x == a | x == b | x == c is x %in% c(a, b, c).

It checks if each value in the left vector is present in the right vector.

Example

Code
# Flights in November or December
flights |>
  filter(month %in% c(11, 12))

# A tibble: 55,403 × 19
    year month   day dep_time sched_dep_time dep_delay arr_time sched_arr_time
   <int> <int> <int>    <int>          <int>     <dbl>    <int>          <int>
 1  2013    11     1        5           2359         6      352            345
 2  2013    11     1       35           2250       105      123           2356
 3  2013    11     1      455            500        -5      641            651
 4  2013    11     1      539            545        -6      856            827
 5  2013    11     1      542            545        -3      831            855
 6  2013    11     1      549            600       -11      912            923
 7  2013    11     1      550            600       -10      705            659
 8  2013    11     1      554            600        -6      659            701
 9  2013    11     1      554            600        -6      826            827
10  2013    11     1      554            600        -6      749            751
# ℹ 55,393 more rows
# ℹ 11 more variables: arr_delay <dbl>, carrier <chr>, flight <int>,
#   tailnum <chr>, origin <chr>, dest <chr>, air_time <dbl>, distance <dbl>,
#   hour <dbl>, minute <dbl>, time_hour <dttm>
…
Let’s create a human-readable “season” variable.

Code
flights |>
  mutate(
    season = case_when(
      month %in% c(12, 1, 2) ~ "Winter",
      month %in% c(3, 4, 5) ~ "Spring",
      month %in% c(6, 7, 8) ~ "Summer",
      month %in% c(9, 10, 11) ~ "Fall"
    )
  ) |>
  select(month, season)

# A tibble: 336,776 × 2
   month season
   <int> <chr> 
 1     1 Winter
 2     1 Winter
 3     1 Winter
 4     1 Winter
 5     1 Winter
 6     1 Winter
 7     1 Winter
 8     1 Winter
 9     1 Winter
10     1 Winter
# ℹ 336,766 more rows
…
