Joins – CSCI 2025
…
semi_join() keeps all rows from the left table (x) that have a match in the right table (y).

It does not add any columns from y.

Example

top_dest <- flights |>
  count(dest, sort = TRUE) |>
  head(10)

flights |> semi_join(top_dest)

Joining with `by = join_by(dest)`

# A tibble: 141,145 × 19
    year month   day dep_time sched_dep_time dep_delay arr_time sched_arr_time
   <int> <int> <int>    <int>          <int>     <dbl>    <int>          <int>
 1  2013     1     1      542            540         2      923            850
 2  2013     1     1      554            600        -6      812            837
 3  2013     1     1      554            558        -4      740            728
 4  2013     1     1      555            600        -5      913            854
 5  2013     1     1      557            600        -3      838            846
 6  2013     1     1      558            600        -2      753            745
 7  2013     1     1      558            600        -2      924            917
 8  2013     1     1      558            600        -2      923            937
 9  2013     1     1      559            559         0      702            706
10  2013     1     1      600            600         0      851            858
# ℹ 141,135 more rows
# ℹ 11 more variables: arr_delay <dbl>, carrier <chr>, flight <int>,
#   tailnum <chr>, origin <chr>, dest <chr>, air_time <dbl>, distance <dbl>,
#   hour <dbl>, minute <dbl>, time_hour <dttm>

anti_join()

anti_join() returns all rows from x that do not have a match in y.

Useful for finding observations that don’t have a match.

Example

flights |>
  anti_join(planes, by = "tailnum") |>
  count(tailnum, sort = TRUE)

# A tibble: 722 × 2
   tailnum     n
   <chr>   <int>
 1 <NA>     2512
 2 N725MQ    575
 3 N722MQ    513
 4 N723MQ    507
 5 N713MQ    483
 6 N735MQ    396
 7 N0EGMQ    371
 8 N534MQ    364
 9 N542MQ    363
10 N531MQ    349
# ℹ 712 more rows
…
